{
    "devices": [
        {
            "device_key": 2193,
            "device_id": "64823f325f4de6001ea80a3e",
            "device_name": "02_00_00_00_3d_98",
            "site_id": null,
            "network": "airbeam",
            "category": "lowcost",
            "is_active": false,
            "status": "not deployed",
            "is_online": false,
            "mount_type": null,
            "power_type": null,
            "height": 0,
            "next_maintenance": "2023-09-08T20:46:25.432000+00:00",
            "first_seen": "2025-08-22T12:48:48.210818+00:00",
            "last_updated": "2025-11-26T07:36:26.121000+00:00",
            "created_at": "2023-06-08T20:50:58.047000+00:00",
            "updated_at": "2025-11-26T07:39:32.172016+00:00",
            "channel_id": null,
            "network_id": null,
            "current_firmware": null,
            "previous_firmware": null,
            "target_firmware": null,
            "file_upload_state": false,
            "firmware_download_state": "updated",
            "site_location": null,
            "location": null,
            "latest_reading": null
        },
        {
            "device_key": 2195,
            "device_id": "64823f074f5f88001f6c0100",
            "device_name": "02_00_00_00_3d_9c",
            "site_id": null,
            "network": "airbeam",
            "category": "lowcost",
            "is_active": false,
            "status": "not deployed",
            "is_online": false,
            "mount_type": null,
            "power_type": null,
            "height": 0,
            "next_maintenance": "2023-09-08T18:44:54.833000+00:00",
            "first_seen": "2025-08-22T12:48:48.210818+00:00",
            "last_updated": "2025-11-26T07:36:26.121000+00:00",
            "created_at": "2023-06-08T20:50:15.668000+00:00",
            "updated_at": "2025-11-26T07:39:32.173456+00:00",
            "channel_id": null,
            "network_id": null,
            "current_firmware": null,
            "previous_firmware": null,
            "target_firmware": null,
            "file_upload_state": false,
            "firmware_download_state": "updated",
            "site_location": null,
            "location": null,
            "latest_reading": null
        },
        {
            "device_key": 2190,
            "device_id": "64823f54271609001dbae798",
            "device_name": "02_00_00_00_3d_e0",
            "site_id": null,
            "network": "airbeam",
            "category": "lowcost",
            "is_active": false,
            "status": "not deployed",
            "is_online": false,
            "mount_type": null,
            "power_type": null,
            "height": 0,
            "next_maintenance": "2023-09-08T18:45:49.088000+00:00",
            "first_seen": "2025-08-22T11:25:08.290972+00:00",
            "last_updated": "2025-11-26T07:36:26.153000+00:00",
            "created_at": "2023-06-08T20:51:32.699000+00:00",
            "updated_at": "2025-11-26T07:39:32.170535+00:00",
            "channel_id": null,
            "network_id": null,
            "current_firmware": null,
            "previous_firmware": null,
            "target_firmware": null,
            "file_upload_state": false,
            "firmware_download_state": "updated",
            "site_location": null,
            "location": null,
            "latest_reading": null
        },
        {
            "device_key": 2189,
            "device_id": "64823f66271609001dbae79d",
            "device_name": "02_00_00_00_45_a7",
            "site_id": null,
            "network": "airbeam",
            "category": "lowcost",
            "is_active": false,
            "status": "not deployed",
            "is_online": false,
            "mount_type": null,
            "power_type": null,
            "height": 0,
            "next_maintenance": "2023-09-08T18:45:49.088000+00:00",
            "first_seen": "2025-08-22T11:25:08.290972+00:00",
            "last_updated": "2025-11-26T07:36:26.153000+00:00",
            "created_at": "2023-06-08T20:51:50.976000+00:00",
            "updated_at": "2025-11-26T07:39:32.169841+00:00",
            "channel_id": null,
            "network_id": null,
            "current_firmware": null,
            "previous_firmware": null,
            "target_firmware": null,
            "file_upload_state": false,
            "firmware_download_state": "updated",
            "site_location": null,
            "location": null,
            "latest_reading": null
        },
        {
            "device_key": 2196,
            "device_id": "64823db24f5f88001f6c00a3",
            "device_name": "02_00_00_00_45_c6",
            "site_id": null,
            "network": "airbeam",
            "category": "lowcost",
            "is_active": false,
            "status": "not deployed",
            "is_online": false,
            "mount_type": null,
            "power_type": null,
            "height": 0,
            "next_maintenance": "2023-09-08T18:44:54.833000+00:00",
            "first_seen": "2025-08-22T12:48:48.210818+00:00",
            "last_updated": "2025-11-26T07:36:26.121000+00:00",
            "created_at": "2023-06-08T20:44:34.341000+00:00",
            "updated_at": "2025-11-26T07:39:32.174192+00:00",
            "channel_id": null,
            "network_id": null,
            "current_firmware": null,
            "previous_firmware": null,
            "target_firmware": null,
            "file_upload_state": false,
            "firmware_download_state": "updated",
            "site_location": null,
            "location": null,
            "latest_reading": null
        },
        {
            "device_key": 2188,
            "device_id": "64823f75271609001dbae7a1",
            "device_name": "02_00_00_00_45_da",
            "site_id": null,
            "network": "airbeam",
            "category": "lowcost",
            "is_active": false,
            "status": "not deployed",
            "is_online": false,
            "mount_type": null,
            "power_type": null,
            "height": 0,
            "next_maintenance": "2023-09-08T18:45:49.088000+00:00",
            "first_seen": "2025-08-22T11:25:08.290972+00:00",
            "last_updated": "2025-11-26T07:36:26.153000+00:00",
            "created_at": "2023-06-08T20:52:06.004000+00:00",
            "updated_at": "2025-11-26T07:39:32.169142+00:00",
            "channel_id": null,
            "network_id": null,
            "current_firmware": null,
            "previous_firmware": null,
            "target_firmware": null,
            "file_upload_state": false,
            "firmware_download_state": "updated",
            "site_location": null,
            "location": null,
            "latest_reading": null
        },
        {
            "device_key": 2201,
            "device_id": "64823d484f5f88001f6c0095",
            "device_name": "02_00_00_00_45_dc",
            "site_id": null,
            "network": "airbeam",
            "category": "lowcost",
            "is_active": false,
            "status": "not deployed",
            "is_online": false,
            "mount_type": null,
            "power_type": null,
            "height": 0,
            "next_maintenance": "2023-09-08T18:44:54.833000+00:00",
            "first_seen": "2025-08-22T12:48:48.210818+00:00",
            "last_updated": "2025-11-26T07:36:26.110000+00:00",
            "created_at": "2023-06-08T20:42:48.832000+00:00",
            "updated_at": "2025-11-26T07:39:32.177806+00:00",
            "channel_id": null,
            "network_id": null,
            "current_firmware": null,
            "previous_firmware": null,
            "target_firmware": null,
            "file_upload_state": false,
            "firmware_download_state": "updated",
            "site_location": null,
            "location": null,
            "latest_reading": null
        },
        {
            "device_key": 2202,
            "device_id": "648238ed271609001dbae69c",
            "device_name": "02_00_00_00_47_01",
            "site_id": null,
            "network": "airbeam",
            "category": "lowcost",
            "is_active": false,
            "status": "not deployed",
            "is_online": false,
            "mount_type": null,
            "power_type": null,
            "height": 0,
            "next_maintenance": "2023-09-08T18:45:49.088000+00:00",
            "first_seen": "2025-08-22T12:48:48.210818+00:00",
            "last_updated": "2025-11-26T07:36:26.101000+00:00",
            "created_at": "2023-06-08T20:24:14.188000+00:00",
            "updated_at": "2025-11-26T07:39:32.178501+00:00",
            "channel_id": null,
            "network_id": null,
            "current_firmware": null,
            "previous_firmware": null,
            "target_firmware": null,
            "file_upload_state": false,
            "firmware_download_state": "updated",
            "site_location": null,
            "location": null,
            "latest_reading": null
        },
        {
            "device_key": 2184,
            "device_id": "64823fba4f5f88001f6c0119",
            "device_name": "02_00_00_00_47_1f",
            "site_id": null,
            "network": "airbeam",
            "category": "lowcost",
            "is_active": false,
            "status": "not deployed",
            "is_online": false,
            "mount_type": null,
            "power_type": null,
            "height": 0,
            "next_maintenance": "2023-09-08T18:44:54.833000+00:00",
            "first_seen": "2025-08-22T11:25:08.290972+00:00",
            "last_updated": "2025-11-26T07:36:26.164000+00:00",
            "created_at": "2023-06-08T20:53:14.297000+00:00",
            "updated_at": "2025-11-26T07:39:32.165625+00:00",
            "channel_id": null,
            "network_id": null,
            "current_firmware": null,
            "previous_firmware": null,
            "target_firmware": null,
            "file_upload_state": false,
            "firmware_download_state": "updated",
            "site_location": null,
            "location": null,
            "latest_reading": null
        },
        {
            "device_key": 2186,
            "device_id": "64823f974f5f88001f6c0111",
            "device_name": "02_00_00_00_47_84",
            "site_id": null,
            "network": "airbeam",
            "category": "lowcost",
            "is_active": false,
            "status": "not deployed",
            "is_online": false,
            "mount_type": null,
            "power_type": null,
            "height": 0,
            "next_maintenance": "2023-09-08T18:44:54.833000+00:00",
            "first_seen": "2025-08-22T11:25:08.290972+00:00",
            "last_updated": "2025-11-26T07:36:26.153000+00:00",
            "created_at": "2023-06-08T20:52:39.743000+00:00",
            "updated_at": "2025-11-26T07:39:32.167183+00:00",
            "channel_id": null,
            "network_id": null,
            "current_firmware": null,
            "previous_firmware": null,
            "target_firmware": null,
            "file_upload_state": false,
            "firmware_download_state": "updated",
            "site_location": null,
            "location": null,
            "latest_reading": null
        },
        {
            "device_key": 2200,
            "device_id": "64823d614f5f88001f6c0099",
            "device_name": "02_00_00_00_47_87",
            "site_id": null,
            "network": "airbeam",
            "category": "lowcost",
            "is_active": false,
            "status": "not deployed",
            "is_online": false,
            "mount_type": null,
            "power_type": null,
            "height": 0,
            "next_maintenance": "2023-09-08T18:44:54.833000+00:00",
            "first_seen": "2025-08-22T12:48:48.210818+00:00",
            "last_updated": "2025-11-26T07:36:26.110000+00:00",
            "created_at": "2023-06-08T20:43:13.061000+00:00",
            "updated_at": "2025-11-26T07:39:32.177100+00:00",
            "channel_id": null,
            "network_id": null,
            "current_firmware": null,
            "previous_firmware": null,
            "target_firmware": null,
            "file_upload_state": false,
            "firmware_download_state": "updated",
            "site_location": null,
            "location": null,
            "latest_reading": null
        },
        {
            "device_key": 2198,
            "device_id": "64823d8c4f5f88001f6c009e",
            "device_name": "02_00_00_00_47_8c",
            "site_id": null,
            "network": "airbeam",
            "category": "lowcost",
            "is_active": false,
            "status": "not deployed",
            "is_online": false,
            "mount_type": null,
            "power_type": null,
            "height": 0,
            "next_maintenance": "2023-09-08T18:44:54.833000+00:00",
            "first_seen": "2025-08-22T12:48:48.210818+00:00",
            "last_updated": "2025-11-26T07:36:26.110000+00:00",
            "created_at": "2023-06-08T20:43:56.147000+00:00",
            "updated_at": "2025-11-26T07:39:32.175607+00:00",
            "channel_id": null,
            "network_id": null,
            "current_firmware": null,
            "previous_firmware": null,
            "target_firmware": null,
            "file_upload_state": false,
            "firmware_download_state": "updated",
            "site_location": null,
            "location": null,
            "latest_reading": null
        },
        {
            "device_key": 2185,
            "device_id": "64823fa94f5f88001f6c0115",
            "device_name": "02_00_00_00_47_8e",
            "site_id": null,
            "network": "airbeam",
            "category": "lowcost",
            "is_active": false,
            "status": "not deployed",
            "is_online": false,
            "mount_type": null,
            "power_type": null,
            "height": 0,
            "next_maintenance": "2023-09-08T18:44:54.833000+00:00",
            "first_seen": "2025-08-22T11:25:08.290972+00:00",
            "last_updated": "2025-11-26T07:36:26.164000+00:00",
            "created_at": "2023-06-08T20:52:57.017000+00:00",
            "updated_at": "2025-11-26T07:39:32.166482+00:00",
            "channel_id": null,
            "network_id": null,
            "current_firmware": null,
            "previous_firmware": null,
            "target_firmware": null,
            "file_upload_state": false,
            "firmware_download_state": "updated",
            "site_location": null,
            "location": null,
            "latest_reading": null
        },
        {
            "device_key": 2199,
            "device_id": "64823d75271609001dbae74a",
            "device_name": "02_00_00_00_47_8f",
            "site_id": null,
            "network": "airbeam",
            "category": "lowcost",
            "is_active": false,
            "status": "not deployed",
            "is_online": false,
            "mount_type": null,
            "power_type": null,
            "height": 0,
            "next_maintenance": "2023-09-08T18:45:49.088000+00:00",
            "first_seen": "2025-08-22T12:48:48.210818+00:00",
            "last_updated": "2025-11-26T07:36:26.110000+00:00",
            "created_at": "2023-06-08T20:43:33.979000+00:00",
            "updated_at": "2025-11-26T07:39:32.176395+00:00",
            "channel_id": null,
            "network_id": null,
            "current_firmware": null,
            "previous_firmware": null,
            "target_firmware": null,
            "file_upload_state": false,
            "firmware_download_state": "updated",
            "site_location": null,
            "location": null,
            "latest_reading": null
        },
        {
            "device_key": 2191,
            "device_id": "64823f434f5f88001f6c0108",
            "device_name": "02_00_00_00_4b_37",
            "site_id": null,
            "network": "airbeam",
            "category": "lowcost",
            "is_active": false,
            "status": "not deployed",
            "is_online": false,
            "mount_type": null,
            "power_type": null,
            "height": 0,
            "next_maintenance": "2023-09-08T18:44:54.833000+00:00",
            "first_seen": "2025-08-22T11:25:08.290972+00:00",
            "last_updated": "2025-11-26T07:36:26.121000+00:00",
            "created_at": "2023-06-08T20:51:15.586000+00:00",
            "updated_at": "2025-11-26T07:39:32.171300+00:00",
            "channel_id": null,
            "network_id": null,
            "current_firmware": null,
            "previous_firmware": null,
            "target_firmware": null,
            "file_upload_state": false,
            "firmware_download_state": "updated",
            "site_location": null,
            "location": null,
            "latest_reading": null
        },
        {
            "device_key": 2194,
            "device_id": "64823f1b4f5f88001f6c0104",
            "device_name": "02_00_00_00_4c_99",
            "site_id": null,
            "network": "airbeam",
            "category": "lowcost",
            "is_active": false,
            "status": "not deployed",
            "is_online": false,
            "mount_type": null,
            "power_type": null,
            "height": 0,
            "next_maintenance": "2023-09-08T18:44:54.833000+00:00",
            "first_seen": "2025-08-22T12:48:48.210818+00:00",
            "last_updated": "2025-11-26T07:36:26.121000+00:00",
            "created_at": "2023-06-08T20:50:35.038000+00:00",
            "updated_at": "2025-11-26T07:39:32.172744+00:00",
            "channel_id": null,
            "network_id": null,
            "current_firmware": null,
            "previous_firmware": null,
            "target_firmware": null,
            "file_upload_state": false,
            "firmware_download_state": "updated",
            "site_location": null,
            "location": null,
            "latest_reading": null
        },
        {
            "device_key": 2187,
            "device_id": "64823f864f5f88001f6c010d",
            "device_name": "02_00_00_00_4e_2b",
            "site_id": null,
            "network": "airbeam",
            "category": "lowcost",
            "is_active": false,
            "status": "not deployed",
            "is_online": false,
            "mount_type": null,
            "power_type": null,
            "height": 0,
            "next_maintenance": "2023-09-08T18:44:54.833000+00:00",
            "first_seen": "2025-08-22T11:25:08.290972+00:00",
            "last_updated": "2025-11-26T07:36:26.153000+00:00",
            "created_at": "2023-06-08T20:52:22.421000+00:00",
            "updated_at": "2025-11-26T07:39:32.168406+00:00",
            "channel_id": null,
            "network_id": null,
            "current_firmware": null,
            "previous_firmware": null,
            "target_firmware": null,
            "file_upload_state": false,
            "firmware_download_state": "updated",
            "site_location": null,
            "location": null,
            "latest_reading": null
        },
        {
            "device_key": 2197,
            "device_id": "64823da0951615001eb942ac",
            "device_name": "02_00_00_00_50_6e",
            "site_id": null,
            "network": "airbeam",
            "category": "lowcost",
            "is_active": false,
            "status": "not deployed",
            "is_online": false,
            "mount_type": null,
            "power_type": null,
            "height": 0,
            "next_maintenance": "2023-09-08T20:40:57.335000+00:00",
            "first_seen": "2025-08-22T12:48:48.210818+00:00",
            "last_updated": "2025-11-26T07:36:26.110000+00:00",
            "created_at": "2023-06-08T20:44:17.136000+00:00",
            "updated_at": "2025-11-26T07:39:32.174919+00:00",
            "channel_id": null,
            "network_id": null,
            "current_firmware": null,
            "previous_firmware": null,
            "target_firmware": null,
            "file_upload_state": false,
            "firmware_download_state": "updated",
            "site_location": null,
            "location": null,
            "latest_reading": null
        },
        {
            "device_key": 2456,
            "device_id": "603d6ce732e038860ae41918",
            "device_name": "a0wn66fh",
            "site_id": null,
            "network": "kcca",
            "category": "lowcost",
            "is_active": false,
            "status": "recalled",
            "is_online": false,
            "mount_type": "",
            "power_type": "",
            "height": 0,
            "next_maintenance": "2019-12-27T14:22:28.548000+00:00",
            "first_seen": "2025-08-25T17:27:26.040931+00:00",
            "last_updated": "2025-11-26T07:36:06.276000+00:00",
            "created_at": "2019-09-27T14:22:28.548000+00:00",
            "updated_at": "2025-11-26T07:39:32.423616+00:00",
            "channel_id": null,
            "network_id": null,
            "current_firmware": null,
            "previous_firmware": null,
            "target_firmware": null,
            "file_upload_state": false,
            "firmware_download_state": "updated",
            "site_location": null,
            "location": {
                "latitude": 0.2857506,
                "longitude": 32.5783253,
                "site_name": null
            },
            "latest_reading": null
        },
        {
            "device_key": 2463,
            "device_id": "603d6ce732e038860ae41912",
            "device_name": "a743bpwk",
            "site_id": null,
            "network": "kcca",
            "category": "lowcost",
            "is_active": false,
            "status": "recalled",
            "is_online": false,
            "mount_type": "",
            "power_type": "",
            "height": 0,
            "next_maintenance": "2019-12-27T14:14:22.942000+00:00",
            "first_seen": "2025-08-25T17:27:26.040931+00:00",
            "last_updated": "2025-11-26T07:36:06.112000+00:00",
            "created_at": "2019-09-27T14:14:22.942000+00:00",
            "updated_at": "2025-11-26T07:39:32.428803+00:00",
            "channel_id": null,
            "network_id": null,
            "current_firmware": null,
            "previous_firmware": null,
            "target_firmware": null,
            "file_upload_state": false,
            "firmware_download_state": "updated",
            "site_location": null,
            "location": {
                "latitude": 0.331732,
                "longitude": 32.57455,
                "site_name": null
            },
            "latest_reading": null
        },
        {
            "device_key": 2465,
            "device_id": "603d6ce732e038860ae41906",
            "device_name": "a95x5f9t",
            "site_id": null,
            "network": "kcca",
            "category": "lowcost",
            "is_active": false,
            "status": "recalled",
            "is_online": false,
            "mount_type": "",
            "power_type": "",
            "height": 0,
            "next_maintenance": "2019-12-27T13:47:11.429000+00:00",
            "first_seen": "2025-08-25T17:27:26.040931+00:00",
            "last_updated": "2025-11-26T07:36:06.112000+00:00",
            "created_at": "2019-09-27T13:47:11.429000+00:00",
            "updated_at": "2025-11-26T07:39:32.430222+00:00",
            "channel_id": null,
            "network_id": null,
            "current_firmware": null,
            "previous_firmware": null,
            "target_firmware": null,
            "file_upload_state": false,
            "firmware_download_state": "updated",
            "site_location": null,
            "location": {
                "latitude": 0.3154463,
                "longitude": 32.5867095,
                "site_name": null
            },
            "latest_reading": null
        },
        {
            "device_key": 2459,
            "device_id": "603d6ce732e038860ae41901",
            "device_name": "a9wljs5f",
            "site_id": null,
            "network": "kcca",
            "category": "lowcost",
            "is_active": false,
            "status": "recalled",
            "is_online": false,
            "mount_type": "",
            "power_type": "",
            "height": 0,
            "next_maintenance": "2019-12-27T14:18:30.487000+00:00",
            "first_seen": "2025-08-25T17:27:26.040931+00:00",
            "last_updated": "2025-11-26T07:36:06.276000+00:00",
            "created_at": "2019-09-27T14:18:30.487000+00:00",
            "updated_at": "2025-11-26T07:39:32.425921+00:00",
            "channel_id": null,
            "network_id": null,
            "current_firmware": null,
            "previous_firmware": null,
            "target_firmware": null,
            "file_upload_state": false,
            "firmware_download_state": "updated",
            "site_location": null,
            "location": {
                "latitude": 0.2990918,
                "longitude": 32.6479303,
                "site_name": null
            },
            "latest_reading": null
        },
        {
            "device_key": 2473,
            "device_id": "603d6ce732e038860ae41914",
            "device_name": "ab6051m4",
            "site_id": null,
            "network": "kcca",
            "category": "lowcost",
            "is_active": false,
            "status": "recalled",
            "is_online": false,
            "mount_type": "",
            "power_type": "",
            "height": 0,
            "next_maintenance": null,
            "first_seen": "2025-08-25T17:27:26.040931+00:00",
            "last_updated": "2025-11-26T07:36:06.134000+00:00",
            "created_at": "2019-09-27T13:30:13.550000+00:00",
            "updated_at": "2025-11-26T07:39:32.436359+00:00",
            "channel_id": null,
            "network_id": null,
            "current_firmware": null,
            "previous_firmware": null,
            "target_firmware": null,
            "file_upload_state": false,
            "firmware_download_state": "updated",
            "site_location": null,
            "location": {
                "latitude": 0.3907412,
                "longitude": 32.5822574,
                "site_name": null
            },
            "latest_reading": null
        },
        {
            "device_key": 2474,
            "device_id": "603d6ce732e038860ae41900",
            "device_name": "acmvq44h",
            "site_id": null,
            "network": "kcca",
            "category": "lowcost",
            "is_active": false,
            "status": "recalled",
            "is_online": false,
            "mount_type": "",
            "power_type": "",
            "height": 0,
            "next_maintenance": "2023-03-14T18:07:59.461000+00:00",
            "first_seen": "2025-08-25T17:27:26.040931+00:00",
            "last_updated": "2025-11-26T07:36:06.134000+00:00",
            "created_at": "2019-09-27T13:29:16.230000+00:00",
            "updated_at": "2025-11-26T07:39:32.437088+00:00",
            "channel_id": null,
            "network_id": null,
            "current_firmware": null,
            "previous_firmware": null,
            "target_firmware": null,
            "file_upload_state": false,
            "firmware_download_state": "updated",
            "site_location": null,
            "location": {
                "latitude": 0.3931355,
                "longitude": 32.5953621,
                "site_name": null
            },
            "latest_reading": null
        },
        {
            "device_key": 2469,
            "device_id": "603d6ce732e038860ae41910",
            "device_name": "adpyghd0",
            "site_id": null,
            "network": "kcca",
            "category": "lowcost",
            "is_active": false,
            "status": "recalled",
            "is_online": false,
            "mount_type": "",
            "power_type": "",
            "height": 0,
            "next_maintenance": "2019-12-27T13:41:33.334000+00:00",
            "first_seen": "2025-08-25T17:27:26.040931+00:00",
            "last_updated": "2025-11-26T07:36:06.123000+00:00",
            "created_at": "2019-09-27T13:41:33.334000+00:00",
            "updated_at": "2025-11-26T07:39:32.433416+00:00",
            "channel_id": null,
            "network_id": null,
            "current_firmware": null,
            "previous_firmware": null,
            "target_firmware": null,
            "file_upload_state": false,
            "firmware_download_state": "updated",
            "site_location": null,
            "location": {
                "latitude": 0.3395268,
                "longitude": 32.6142522,
                "site_name": null
            },
            "latest_reading": null
        }
    ],
    "pagination": {
        "total": 771,
        "skip": 0,
        "limit": 25,
        "returned": 25,
        "pages": 31,
        "current_page": 1,
        "has_next": true,
        "has_previous": false
    }
}